<svg xmlns="http://www.w3.org/2000/svg" xmlns:xlink="http://www.w3.org/1999/xlink" id="terminal" baseProfile="full" viewBox="0 0 656 325" width="656" version="1.1">
    <defs>
        <termtosvg:template_settings xmlns:termtosvg="https://github.com/nbedos/termtosvg">
            <termtosvg:screen_geometry columns="82" rows="19"/>
            <termtosvg:animation type="css"/>
        </termtosvg:template_settings>
        <style type="text/css" id="generated-style"><![CDATA[#screen {
                font-family: 'DejaVu Sans Mono', monospace;
                font-style: normal;
                font-size: 14px;
            }

        text {
            dominant-baseline: text-before-edge;
            white-space: pre;
        }
    
            :root {
                --animation-duration: 10766ms;
            }

            @keyframes roll {
                0.000%{transform:translateY(0px)}
9.846%{transform:translateY(-340px)}
11.573%{transform:translateY(-680px)}
12.539%{transform:translateY(-1020px)}
13.208%{transform:translateY(-1360px)}
14.026%{transform:translateY(-1700px)}
17.054%{transform:translateY(-2040px)}
19.729%{transform:translateY(-2380px)}
20.927%{transform:translateY(-2720px)}
21.661%{transform:translateY(-3060px)}
23.017%{transform:translateY(-3400px)}
24.707%{transform:translateY(-3740px)}
25.608%{transform:translateY(-4080px)}
26.565%{transform:translateY(-4420px)}
27.383%{transform:translateY(-4760px)}
28.655%{transform:translateY(-5100px)}
29.389%{transform:translateY(-5440px)}
30.894%{transform:translateY(-5780px)}
32.891%{transform:translateY(-6120px)}
35.724%{transform:translateY(-6460px)}
35.733%{transform:translateY(-6800px)}
35.770%{transform:translateY(-7140px)}
40.098%{transform:translateY(-7480px)}
41.891%{transform:translateY(-7820px)}
42.774%{transform:translateY(-8160px)}
43.377%{transform:translateY(-8500px)}
44.269%{transform:translateY(-8840px)}
47.390%{transform:translateY(-9180px)}
54.746%{transform:translateY(-9520px)}
56.521%{transform:translateY(-9860px)}
57.570%{transform:translateY(-10200px)}
58.165%{transform:translateY(-10540px)}
59.428%{transform:translateY(-10880px)}
59.948%{transform:translateY(-11220px)}
61.053%{transform:translateY(-11560px)}
61.954%{transform:translateY(-11900px)}
63.292%{transform:translateY(-12240px)}
64.332%{transform:translateY(-12580px)}
65.001%{transform:translateY(-12920px)}
65.735%{transform:translateY(-13260px)}
67.072%{transform:translateY(-13600px)}
68.103%{transform:translateY(-13940px)}
68.633%{transform:translateY(-14280px)}
69.450%{transform:translateY(-14620px)}
70.490%{transform:translateY(-14960px)}
71.308%{transform:translateY(-15300px)}
72.339%{transform:translateY(-15640px)}
74.800%{transform:translateY(-15980px)}
77.252%{transform:translateY(-16320px)}
79.259%{transform:translateY(-16660px)}
81.711%{transform:translateY(-17000px)}
81.730%{transform:translateY(-17340px)}
81.757%{transform:translateY(-17680px)}
90.711%{transform:translateY(-18020px)}
100.000%{transform:translateY(-18020px)}
            }

            #screen_view {
                animation-duration: 10766ms;
                animation-iteration-count:infinite;
                animation-name:roll;
                animation-timing-function: steps(1,end);
                animation-fill-mode: forwards;
            }
        ]]></style>
        <style type="text/css" id="user-style">
            /* The colors defined below are the default 16 colors used for rendering text of the terminal. Adjust
               them as needed.
               PowerShell colors based on https://en.wikipedia.org/wiki/ANSI_escape_code#Colors */
            .foreground {fill: #cccccc;}
            .background {fill: #0c0c0c;}
            .color0 {fill: #0c0c0c;}
            .color1 {fill: #c50f1f;}
            .color2 {fill: #13a10e;}
            .color3 {fill: #c19c00;}
            .color4 {fill: #0037da;}
            .color5 {fill: #881798;}
            .color6 {fill: #3a96dd;}
            .color7 {fill: #cccccc;}
            .color8 {fill: #767676;}
            .color9 {fill: #e74856;}
            .color10 {fill: #16c60c;}
            .color11 {fill: #f9f1a5;}
            .color12 {fill: #3b78ff;}
            .color13 {fill: #b4009e;}
            .color14 {fill: #61d6d6;}
            .color15 {fill: #f2f2f2;}
        </style>
    </defs>
    <svg id="screen" width="656" height="323" viewBox="0 0 656 323" preserveAspectRatio="xMidYMin slice">
    <rect class="background" height="100%" width="100%" x="0" y="0"/><defs><g id="g1"><text x="0" textLength="272" class="foreground">nonroot@Ericks-MacBook-Pro temp % </text><text x="272" textLength="8" class="background"> </text><text x="280" textLength="376" class="foreground">                                               </text></g><g id="g2"><text x="0" textLength="280" class="foreground">nonroot@Ericks-MacBook-Pro temp % e</text><text x="280" textLength="8" class="background"> </text><text x="288" textLength="368" class="foreground">                                              </text></g><g id="g3"><text x="0" textLength="288" class="foreground">nonroot@Ericks-MacBook-Pro temp % ec</text><text x="288" textLength="8" class="background"> </text><text x="296" textLength="360" class="foreground">                                             </text></g><g id="g4"><text x="0" textLength="296" class="foreground">nonroot@Ericks-MacBook-Pro temp % ech</text><text x="296" textLength="8" class="background"> </text><text x="304" textLength="352" class="foreground">                                            </text></g><g id="g5"><text x="0" textLength="304" class="foreground">nonroot@Ericks-MacBook-Pro temp % echo</text><text x="304" textLength="8" class="background"> </text><text x="312" textLength="344" class="foreground">                                           </text></g><g id="g6"><text x="0" textLength="312" class="foreground">nonroot@Ericks-MacBook-Pro temp % echo </text><text x="312" textLength="8" class="background"> </text><text x="320" textLength="336" class="foreground">                                          </text></g><g id="g7"><text x="0" textLength="320" class="foreground">nonroot@Ericks-MacBook-Pro temp % echo "</text><text x="320" textLength="8" class="background"> </text><text x="328" textLength="328" class="foreground">                                         </text></g><g id="g8"><text x="0" textLength="328" class="foreground">nonroot@Ericks-MacBook-Pro temp % echo "h</text><text x="328" textLength="8" class="background"> </text><text x="336" textLength="320" class="foreground">                                        </text></g><g id="g9"><text x="0" textLength="336" class="foreground">nonroot@Ericks-MacBook-Pro temp % echo "he</text><text x="336" textLength="8" class="background"> </text><text x="344" textLength="312" class="foreground">                                       </text></g><g id="g10"><text x="0" textLength="344" class="foreground">nonroot@Ericks-MacBook-Pro temp % echo "hel</text><text x="344" textLength="8" class="background"> </text><text x="352" textLength="304" class="foreground">                                      </text></g><g id="g11"><text x="0" textLength="352" class="foreground">nonroot@Ericks-MacBook-Pro temp % echo "hell</text><text x="352" textLength="8" class="background"> </text><text x="360" textLength="296" class="foreground">                                     </text></g><g id="g12"><text x="0" textLength="360" class="foreground">nonroot@Ericks-MacBook-Pro temp % echo "hello</text><text x="360" textLength="8" class="background"> </text><text x="368" textLength="288" class="foreground">                                    </text></g><g id="g13"><text x="0" textLength="368" class="foreground">nonroot@Ericks-MacBook-Pro temp % echo "hello </text><text x="368" textLength="8" class="background"> </text><text x="376" textLength="280" class="foreground">                                   </text></g><g id="g14"><text x="0" textLength="376" class="foreground">nonroot@Ericks-MacBook-Pro temp % echo "hello w</text><text x="376" textLength="8" class="background"> </text><text x="384" textLength="272" class="foreground">                                  </text></g><g id="g15"><text x="0" textLength="384" class="foreground">nonroot@Ericks-MacBook-Pro temp % echo "hello wo</text><text x="384" textLength="8" class="background"> </text><text x="392" textLength="264" class="foreground">                                 </text></g><g id="g16"><text x="0" textLength="392" class="foreground">nonroot@Ericks-MacBook-Pro temp % echo "hello wor</text><text x="392" textLength="8" class="background"> </text><text x="400" textLength="256" class="foreground">                                </text></g><g id="g17"><text x="0" textLength="400" class="foreground">nonroot@Ericks-MacBook-Pro temp % echo "hello worl</text><text x="400" textLength="8" class="background"> </text><text x="408" textLength="248" class="foreground">                               </text></g><g id="g18"><text x="0" textLength="408" class="foreground">nonroot@Ericks-MacBook-Pro temp % echo "hello world</text><text x="408" textLength="8" class="background"> </text><text x="416" textLength="240" class="foreground">                              </text></g><g id="g19"><text x="0" textLength="416" class="foreground">nonroot@Ericks-MacBook-Pro temp % echo "hello world"</text><text x="416" textLength="8" class="background"> </text><text x="424" textLength="232" class="foreground">                             </text></g><g id="g20"><text x="0" textLength="656" class="foreground">nonroot@Ericks-MacBook-Pro temp % echo "hello world"                              </text></g><g id="g21"><text x="0" textLength="8" class="background"> </text></g><g id="g22"><text x="0" textLength="88" class="foreground">hello world</text></g><g id="g23"><text x="0" textLength="8" class="background"> </text><text x="8" textLength="648" class="foreground">                                                                                 </text></g><g id="g24"><text x="0" textLength="328" class="foreground">nonroot@Ericks-MacBook-Pro temp % echo "c</text><text x="328" textLength="8" class="background"> </text><text x="336" textLength="320" class="foreground">                                        </text></g><g id="g25"><text x="0" textLength="336" class="foreground">nonroot@Ericks-MacBook-Pro temp % echo "ca</text><text x="336" textLength="8" class="background"> </text><text x="344" textLength="312" class="foreground">                                       </text></g><g id="g26"><text x="0" textLength="344" class="foreground">nonroot@Ericks-MacBook-Pro temp % echo "can</text><text x="344" textLength="8" class="background"> </text><text x="352" textLength="304" class="foreground">                                      </text></g><g id="g27"><text x="0" textLength="352" class="foreground">nonroot@Ericks-MacBook-Pro temp % echo "can </text><text x="352" textLength="8" class="background"> </text><text x="360" textLength="296" class="foreground">                                     </text></g><g id="g28"><text x="0" textLength="360" class="foreground">nonroot@Ericks-MacBook-Pro temp % echo "can i</text><text x="360" textLength="8" class="background"> </text><text x="368" textLength="288" class="foreground">                                    </text></g><g id="g29"><text x="0" textLength="368" class="foreground">nonroot@Ericks-MacBook-Pro temp % echo "can i </text><text x="368" textLength="8" class="background"> </text><text x="376" textLength="280" class="foreground">                                   </text></g><g id="g30"><text x="0" textLength="376" class="foreground">nonroot@Ericks-MacBook-Pro temp % echo "can i p</text><text x="376" textLength="8" class="background"> </text><text x="384" textLength="272" class="foreground">                                  </text></g><g id="g31"><text x="0" textLength="384" class="foreground">nonroot@Ericks-MacBook-Pro temp % echo "can i pa</text><text x="384" textLength="8" class="background"> </text><text x="392" textLength="264" class="foreground">                                 </text></g><g id="g32"><text x="0" textLength="392" class="foreground">nonroot@Ericks-MacBook-Pro temp % echo "can i pau</text><text x="392" textLength="8" class="background"> </text><text x="400" textLength="256" class="foreground">                                </text></g><g id="g33"><text x="0" textLength="400" class="foreground">nonroot@Ericks-MacBook-Pro temp % echo "can i paus</text><text x="400" textLength="8" class="background"> </text><text x="408" textLength="248" class="foreground">                               </text></g><g id="g34"><text x="0" textLength="408" class="foreground">nonroot@Ericks-MacBook-Pro temp % echo "can i pause</text><text x="408" textLength="8" class="background"> </text><text x="416" textLength="240" class="foreground">                              </text></g><g id="g35"><text x="0" textLength="416" class="foreground">nonroot@Ericks-MacBook-Pro temp % echo "can i pause </text><text x="416" textLength="8" class="background"> </text><text x="424" textLength="232" class="foreground">                             </text></g><g id="g36"><text x="0" textLength="424" class="foreground">nonroot@Ericks-MacBook-Pro temp % echo "can i pause t</text><text x="424" textLength="8" class="background"> </text><text x="432" textLength="224" class="foreground">                            </text></g><g id="g37"><text x="0" textLength="432" class="foreground">nonroot@Ericks-MacBook-Pro temp % echo "can i pause th</text><text x="432" textLength="8" class="background"> </text><text x="440" textLength="216" class="foreground">                           </text></g><g id="g38"><text x="0" textLength="440" class="foreground">nonroot@Ericks-MacBook-Pro temp % echo "can i pause thi</text><text x="440" textLength="8" class="background"> </text><text x="448" textLength="208" class="foreground">                          </text></g><g id="g39"><text x="0" textLength="448" class="foreground">nonroot@Ericks-MacBook-Pro temp % echo "can i pause this</text><text x="448" textLength="8" class="background"> </text><text x="456" textLength="200" class="foreground">                         </text></g><g id="g40"><text x="0" textLength="456" class="foreground">nonroot@Ericks-MacBook-Pro temp % echo "can i pause this </text><text x="456" textLength="8" class="background"> </text><text x="464" textLength="192" class="foreground">                        </text></g><g id="g41"><text x="0" textLength="464" class="foreground">nonroot@Ericks-MacBook-Pro temp % echo "can i pause this s</text><text x="464" textLength="8" class="background"> </text><text x="472" textLength="184" class="foreground">                       </text></g><g id="g42"><text x="0" textLength="472" class="foreground">nonroot@Ericks-MacBook-Pro temp % echo "can i pause this sv</text><text x="472" textLength="8" class="background"> </text><text x="480" textLength="176" class="foreground">                      </text></g><g id="g43"><text x="0" textLength="480" class="foreground">nonroot@Ericks-MacBook-Pro temp % echo "can i pause this svg</text><text x="480" textLength="8" class="background"> </text><text x="488" textLength="168" class="foreground">                     </text></g><g id="g44"><text x="0" textLength="488" class="foreground">nonroot@Ericks-MacBook-Pro temp % echo "can i pause this svg?</text><text x="488" textLength="8" class="background"> </text><text x="496" textLength="160" class="foreground">                    </text></g><g id="g45"><text x="0" textLength="496" class="foreground">nonroot@Ericks-MacBook-Pro temp % echo "can i pause this svg?"</text><text x="496" textLength="8" class="background"> </text><text x="504" textLength="152" class="foreground">                   </text></g><g id="g46"><text x="0" textLength="656" class="foreground">nonroot@Ericks-MacBook-Pro temp % echo "can i pause this svg?"                    </text></g><g id="g47"><text x="0" textLength="168" class="foreground">can i pause this svg?</text></g><g id="g48"><text x="0" textLength="656" class="foreground">nonroot@Ericks-MacBook-Pro temp %                                                 </text></g></defs><g id="screen_view"><g><rect x="272" y="0" width="8" height="17" class="foreground"/><use xlink:href="#g1" y="0"/></g><g><rect x="280" y="340" width="8" height="17" class="foreground"/><use xlink:href="#g2" y="340"/></g><g><rect x="288" y="680" width="8" height="17" class="foreground"/><use xlink:href="#g3" y="680"/></g><g><rect x="296" y="1020" width="8" height="17" class="foreground"/><use xlink:href="#g4" y="1020"/></g><g><rect x="304" y="1360" width="8" height="17" class="foreground"/><use xlink:href="#g5" y="1360"/></g><g><rect x="312" y="1700" width="8" height="17" class="foreground"/><use xlink:href="#g6" y="1700"/></g><g><rect x="320" y="2040" width="8" height="17" class="foreground"/><use xlink:href="#g7" y="2040"/></g><g><rect x="328" y="2380" width="8" height="17" class="foreground"/><use xlink:href="#g8" y="2380"/></g><g><rect x="336" y="2720" width="8" height="17" class="foreground"/><use xlink:href="#g9" y="2720"/></g><g><rect x="344" y="3060" width="8" height="17" class="foreground"/><use xlink:href="#g10" y="3060"/></g><g><rect x="352" y="3400" width="8" height="17" class="foreground"/><use xlink:href="#g11" y="3400"/></g><g><rect x="360" y="3740" width="8" height="17" class="foreground"/><use xlink:href="#g12" y="3740"/></g><g><rect x="368" y="4080" width="8" height="17" class="foreground"/><use xlink:href="#g13" y="4080"/></g><g><rect x="376" y="4420" width="8" height="17" class="foreground"/><use xlink:href="#g14" y="4420"/></g><g><rect x="384" y="4760" width="8" height="17" class="foreground"/><use xlink:href="#g15" y="4760"/></g><g><rect x="392" y="5100" width="8" height="17" class="foreground"/><use xlink:href="#g16" y="5100"/></g><g><rect x="400" y="5440" width="8" height="17" class="foreground"/><use xlink:href="#g17" y="5440"/></g><g><rect x="408" y="5780" width="8" height="17" class="foreground"/><use xlink:href="#g18" y="5780"/></g><g><rect x="416" y="6120" width="8" height="17" class="foreground"/><use xlink:href="#g19" y="6120"/></g><g><use xlink:href="#g20" y="6460"/><rect x="0" y="6477" width="8" height="17" class="foreground"/><use xlink:href="#g21" y="6477"/></g><g><use xlink:href="#g20" y="6800"/><use xlink:href="#g22" y="6817"/><rect x="0" y="6834" width="8" height="17" class="foreground"/><use xlink:href="#g23" y="6834"/></g><g><use xlink:href="#g20" y="7140"/><use xlink:href="#g22" y="7157"/><rect x="272" y="7174" width="8" height="17" class="foreground"/><use xlink:href="#g1" y="7174"/></g><g><use xlink:href="#g20" y="7480"/><use xlink:href="#g22" y="7497"/><rect x="280" y="7514" width="8" height="17" class="foreground"/><use xlink:href="#g2" y="7514"/></g><g><use xlink:href="#g20" y="7820"/><use xlink:href="#g22" y="7837"/><rect x="288" y="7854" width="8" height="17" class="foreground"/><use xlink:href="#g3" y="7854"/></g><g><use xlink:href="#g20" y="8160"/><use xlink:href="#g22" y="8177"/><rect x="296" y="8194" width="8" height="17" class="foreground"/><use xlink:href="#g4" y="8194"/></g><g><use xlink:href="#g20" y="8500"/><use xlink:href="#g22" y="8517"/><rect x="304" y="8534" width="8" height="17" class="foreground"/><use xlink:href="#g5" y="8534"/></g><g><use xlink:href="#g20" y="8840"/><use xlink:href="#g22" y="8857"/><rect x="312" y="8874" width="8" height="17" class="foreground"/><use xlink:href="#g6" y="8874"/></g><g><use xlink:href="#g20" y="9180"/><use xlink:href="#g22" y="9197"/><rect x="320" y="9214" width="8" height="17" class="foreground"/><use xlink:href="#g7" y="9214"/></g><g><use xlink:href="#g20" y="9520"/><use xlink:href="#g22" y="9537"/><rect x="328" y="9554" width="8" height="17" class="foreground"/><use xlink:href="#g24" y="9554"/></g><g><use xlink:href="#g20" y="9860"/><use xlink:href="#g22" y="9877"/><rect x="336" y="9894" width="8" height="17" class="foreground"/><use xlink:href="#g25" y="9894"/></g><g><use xlink:href="#g20" y="10200"/><use xlink:href="#g22" y="10217"/><rect x="344" y="10234" width="8" height="17" class="foreground"/><use xlink:href="#g26" y="10234"/></g><g><use xlink:href="#g20" y="10540"/><use xlink:href="#g22" y="10557"/><rect x="352" y="10574" width="8" height="17" class="foreground"/><use xlink:href="#g27" y="10574"/></g><g><use xlink:href="#g20" y="10880"/><use xlink:href="#g22" y="10897"/><rect x="360" y="10914" width="8" height="17" class="foreground"/><use xlink:href="#g28" y="10914"/></g><g><use xlink:href="#g20" y="11220"/><use xlink:href="#g22" y="11237"/><rect x="368" y="11254" width="8" height="17" class="foreground"/><use xlink:href="#g29" y="11254"/></g><g><use xlink:href="#g20" y="11560"/><use xlink:href="#g22" y="11577"/><rect x="376" y="11594" width="8" height="17" class="foreground"/><use xlink:href="#g30" y="11594"/></g><g><use xlink:href="#g20" y="11900"/><use xlink:href="#g22" y="11917"/><rect x="384" y="11934" width="8" height="17" class="foreground"/><use xlink:href="#g31" y="11934"/></g><g><use xlink:href="#g20" y="12240"/><use xlink:href="#g22" y="12257"/><rect x="392" y="12274" width="8" height="17" class="foreground"/><use xlink:href="#g32" y="12274"/></g><g><use xlink:href="#g20" y="12580"/><use xlink:href="#g22" y="12597"/><rect x="400" y="12614" width="8" height="17" class="foreground"/><use xlink:href="#g33" y="12614"/></g><g><use xlink:href="#g20" y="12920"/><use xlink:href="#g22" y="12937"/><rect x="408" y="12954" width="8" height="17" class="foreground"/><use xlink:href="#g34" y="12954"/></g><g><use xlink:href="#g20" y="13260"/><use xlink:href="#g22" y="13277"/><rect x="416" y="13294" width="8" height="17" class="foreground"/><use xlink:href="#g35" y="13294"/></g><g><use xlink:href="#g20" y="13600"/><use xlink:href="#g22" y="13617"/><rect x="424" y="13634" width="8" height="17" class="foreground"/><use xlink:href="#g36" y="13634"/></g><g><use xlink:href="#g20" y="13940"/><use xlink:href="#g22" y="13957"/><rect x="432" y="13974" width="8" height="17" class="foreground"/><use xlink:href="#g37" y="13974"/></g><g><use xlink:href="#g20" y="14280"/><use xlink:href="#g22" y="14297"/><rect x="440" y="14314" width="8" height="17" class="foreground"/><use xlink:href="#g38" y="14314"/></g><g><use xlink:href="#g20" y="14620"/><use xlink:href="#g22" y="14637"/><rect x="448" y="14654" width="8" height="17" class="foreground"/><use xlink:href="#g39" y="14654"/></g><g><use xlink:href="#g20" y="14960"/><use xlink:href="#g22" y="14977"/><rect x="456" y="14994" width="8" height="17" class="foreground"/><use xlink:href="#g40" y="14994"/></g><g><use xlink:href="#g20" y="15300"/><use xlink:href="#g22" y="15317"/><rect x="464" y="15334" width="8" height="17" class="foreground"/><use xlink:href="#g41" y="15334"/></g><g><use xlink:href="#g20" y="15640"/><use xlink:href="#g22" y="15657"/><rect x="472" y="15674" width="8" height="17" class="foreground"/><use xlink:href="#g42" y="15674"/></g><g><use xlink:href="#g20" y="15980"/><use xlink:href="#g22" y="15997"/><rect x="480" y="16014" width="8" height="17" class="foreground"/><use xlink:href="#g43" y="16014"/></g><g><use xlink:href="#g20" y="16320"/><use xlink:href="#g22" y="16337"/><rect x="488" y="16354" width="8" height="17" class="foreground"/><use xlink:href="#g44" y="16354"/></g><g><use xlink:href="#g20" y="16660"/><use xlink:href="#g22" y="16677"/><rect x="496" y="16694" width="8" height="17" class="foreground"/><use xlink:href="#g45" y="16694"/></g><g><use xlink:href="#g20" y="17000"/><use xlink:href="#g22" y="17017"/><use xlink:href="#g46" y="17034"/><rect x="0" y="17051" width="8" height="17" class="foreground"/><use xlink:href="#g21" y="17051"/></g><g><use xlink:href="#g20" y="17340"/><use xlink:href="#g22" y="17357"/><use xlink:href="#g46" y="17374"/><use xlink:href="#g47" y="17391"/><rect x="0" y="17408" width="8" height="17" class="foreground"/><use xlink:href="#g23" y="17408"/></g><g><use xlink:href="#g20" y="17680"/><use xlink:href="#g22" y="17697"/><use xlink:href="#g46" y="17714"/><use xlink:href="#g47" y="17731"/><rect x="272" y="17748" width="8" height="17" class="foreground"/><use xlink:href="#g1" y="17748"/></g><g><use xlink:href="#g20" y="18020"/><use xlink:href="#g22" y="18037"/><use xlink:href="#g46" y="18054"/><use xlink:href="#g47" y="18071"/><use xlink:href="#g48" y="18088"/><rect x="0" y="18105" width="8" height="17" class="foreground"/><use xlink:href="#g21" y="18105"/></g></g></svg>
</svg>